<?xml version="1.0" encoding="UTF-8"?>
<svg width="100" height="100" viewBox="0 0 100 100" version="1.1" xmlns="http://www.w3.org/2000/svg" xmlns:xlink="http://www.w3.org/1999/xlink">
  <defs>

 </defs>
  <circle cx="50" cy="50" r="40" stroke="#70308B" stroke-width="5" fill="none" />
  <circle cx="50" cy="50" r="35" stroke="#E69196" stroke-width="5" fill="#F7E1F2" />
</svg>